<?xml version="1.0" encoding="UTF-8" standalone="no"?>
<!-- Created with Inkscape (http://www.inkscape.org/) -->

<svg
   xmlns:dc="http://purl.org/dc/elements/1.1/"
   xmlns:cc="http://creativecommons.org/ns#"
   xmlns:rdf="http://www.w3.org/1999/02/22-rdf-syntax-ns#"
   xmlns:svg="http://www.w3.org/2000/svg"
   xmlns="http://www.w3.org/2000/svg"
   xmlns:sodipodi="http://sodipodi.sourceforge.net/DTD/sodipodi-0.dtd"
   xmlns:inkscape="http://www.inkscape.org/namespaces/inkscape"
   width="946"
   height="722"
   id="svg3880"
   version="1.1"
   inkscape:version="0.48.0 r9654"
   sodipodi:docname="xxxxx-x-x.svg"
   inkscape:export-filename="/home/shaunm/if-1-0.png"
   inkscape:export-xdpi="90"
   inkscape:export-ydpi="90">
  <defs
     id="defs3882" />
  <sodipodi:namedview
     id="base"
     pagecolor="#ffffff"
     bordercolor="#666666"
     borderopacity="1"
     inkscape:pageopacity="0.0"
     inkscape:pageshadow="2"
     inkscape:zoom="1"
     inkscape:cx="484.77551"
     inkscape:cy="341.04912"
     inkscape:document-units="px"
     inkscape:current-layer="layer1"
     showgrid="true"
     units="px"
     inkscape:window-width="1680"
     inkscape:window-height="979"
     inkscape:window-x="0"
     inkscape:window-y="25"
     inkscape:window-maximized="1"
     inkscape:object-paths="false"
     borderlayer="true"
     inkscape:showpageshadow="false">
    <inkscape:grid
       type="xygrid"
       id="grid3888"
       empspacing="4"
       visible="true"
       enabled="true"
       snapvisiblegridlinesonly="true"
       empcolor="#0000ff"
       empopacity="0.1372549"
       dotted="true"
       originy="1px"
       originx="1px" />
    <inkscape:grid
       type="xygrid"
       id="grid4777"
       empspacing="1"
       visible="true"
       enabled="true"
       snapvisiblegridlinesonly="true"
       spacingx="236px"
       spacingy="720px"
       originy="1px"
       originx="1px" />
  </sodipodi:namedview>
  <metadata
     id="metadata3885">
    <rdf:RDF>
      <cc:Work
         rdf:about="">
        <dc:format>image/svg+xml</dc:format>
        <dc:type
           rdf:resource="http://purl.org/dc/dcmitype/StillImage" />
        <dc:title></dc:title>
      </cc:Work>
    </rdf:RDF>
  </metadata>
  <g
     inkscape:label="Layer 1"
     inkscape:groupmode="layer"
     id="layer1"
     transform="translate(0,-330.359)">
    <rect
       style="fill:#ffffff;fill-opacity:1;stroke:#000000;stroke-width:1;stroke-opacity:1;stroke-miterlimit:4;stroke-dasharray:none"
       id="rect4243"
       width="945"
       height="721"
       x="0.5"
       y="330.85901"
       ry="1.5537203e-12"
       rx="1.5537202e-12" />
    <text
       xml:space="preserve"
       style="font-size:32.50287247px;font-style:normal;font-variant:normal;font-weight:500;font-stretch:normal;line-height:125%;letter-spacing:0px;word-spacing:0px;fill:#eeeeec;fill-opacity:1;stroke:none;font-family:Cantarell;-inkscape-font-specification:Cantarell Medium"
       x="-398.9794"
       y="922.9137"
       id="text6025"
       sodipodi:linespacing="125%"
       transform="matrix(0.89032723,-0.45532124,0.45532124,0.89032723,0,0)"><tspan
         sodipodi:role="line"
         id="tspan6027"
         x="-398.9794"
         y="922.9137"
         style="font-size:234.0206604px;font-style:normal;font-variant:normal;font-weight:bold;font-stretch:normal;letter-spacing:32.50287247px;fill:#eeeeec;font-family:DejaVu Sans;-inkscape-font-specification:DejaVu Sans Bold">DRAFT</tspan></text>
    <text
       sodipodi:linespacing="120%"
       id="text6447"
       y="399.35901"
       x="245"
       style="font-size:16px;font-style:normal;font-variant:normal;font-weight:bold;font-stretch:normal;line-height:120.00000477%;letter-spacing:0px;word-spacing:0px;fill:#000000;fill-opacity:1;stroke:none;font-family:PT Sans;-inkscape-font-specification:PT Sans Bold"
       xml:space="preserve"><tspan
         y="399.35901"
         x="245"
         sodipodi:role="line"
         style="font-size:16px;font-style:normal;font-variant:normal;font-weight:bold;font-stretch:normal;line-height:120.00000477%;font-family:PT Sans;-inkscape-font-specification:PT Sans Bold"
         id="tspan5482">Dark (Primary Mallard Head)</tspan><tspan
         y="416.89105"
         x="245"
         sodipodi:role="line"
         style="font-size:14px;font-style:normal;font-variant:normal;font-weight:bold;font-stretch:normal;line-height:120.00000477%;font-family:PT Sans;-inkscape-font-specification:PT Sans Bold"
         id="tspan6881">Tango Color #3</tspan><tspan
         y="433.69107"
         x="245"
         sodipodi:role="line"
         style="font-size:14px;font-style:normal;font-variant:normal;font-weight:bold;font-stretch:normal;line-height:120.00000477%;fill:#c4a000;font-family:PT Sans;-inkscape-font-specification:PT Sans Bold"
         id="tspan6883">Butter 3</tspan><tspan
         y="450.49106"
         x="245"
         sodipodi:role="line"
         style="font-size:14px;font-style:normal;font-variant:normal;font-weight:bold;font-stretch:normal;line-height:120.00000477%;fill:#4e9a06;font-family:PT Sans;-inkscape-font-specification:PT Sans Bold"
         id="tspan6885">Chameleon 3</tspan><tspan
         y="467.29105"
         x="245"
         sodipodi:role="line"
         style="font-size:14px;font-style:normal;font-variant:normal;font-weight:bold;font-stretch:normal;line-height:120.00000477%;fill:#ce5c00;font-family:PT Sans;-inkscape-font-specification:PT Sans Bold"
         id="tspan6887">Orange 3</tspan><tspan
         y="484.09106"
         x="245"
         sodipodi:role="line"
         style="font-size:14px;font-style:normal;font-variant:normal;font-weight:bold;font-stretch:normal;line-height:120.00000477%;fill:#204a87;font-family:PT Sans;-inkscape-font-specification:PT Sans Bold"
         id="tspan6889">Sky Blue 3</tspan><tspan
         y="500.89105"
         x="245"
         sodipodi:role="line"
         style="font-size:14px;font-style:normal;font-variant:normal;font-weight:bold;font-stretch:normal;line-height:120.00000477%;fill:#5c3566;font-family:PT Sans;-inkscape-font-specification:PT Sans Bold"
         id="tspan6891">Plum 3</tspan><tspan
         y="517.69104"
         x="245"
         sodipodi:role="line"
         style="font-size:14px;font-style:normal;font-variant:normal;font-weight:bold;font-stretch:normal;line-height:120.00000477%;fill:#8f5902;font-family:PT Sans;-inkscape-font-specification:PT Sans Bold"
         id="tspan6893">Chocolate 3</tspan><tspan
         y="534.49109"
         x="245"
         sodipodi:role="line"
         style="font-size:14px;font-style:normal;font-variant:normal;font-weight:bold;font-stretch:normal;line-height:120.00000477%;fill:#a40000;font-family:PT Sans;-inkscape-font-specification:PT Sans Bold"
         id="tspan6895">Scarlet Red 3</tspan><tspan
         y="551.29108"
         x="245"
         sodipodi:role="line"
         style="font-size:14px;font-style:normal;font-variant:normal;font-weight:bold;font-stretch:normal;line-height:120.00000477%;font-family:PT Sans;-inkscape-font-specification:PT Sans Bold"
         id="tspan6897" /><tspan
         y="569.75903"
         x="245"
         sodipodi:role="line"
         style="font-size:16px;font-style:normal;font-variant:normal;font-weight:bold;font-stretch:normal;line-height:120.00000477%;font-family:PT Sans;-inkscape-font-specification:PT Sans Bold"
         id="tspan6899">Medium (Box Heads and xmlns)</tspan><tspan
         y="587.29108"
         x="245"
         sodipodi:role="line"
         style="font-size:14px;font-style:normal;font-variant:normal;font-weight:bold;font-stretch:normal;line-height:120.00000477%;font-family:PT Sans;-inkscape-font-specification:PT Sans Bold"
         id="tspan6903">Tango Color #2</tspan><tspan
         y="604.09106"
         x="245"
         sodipodi:role="line"
         style="font-size:14px;font-style:normal;font-variant:normal;font-weight:bold;font-stretch:normal;line-height:120.00000477%;fill:#edd400;font-family:PT Sans;-inkscape-font-specification:PT Sans Bold"
         id="tspan6905">Butter 2</tspan><tspan
         y="620.89105"
         x="245"
         sodipodi:role="line"
         style="font-size:14px;font-style:normal;font-variant:normal;font-weight:bold;font-stretch:normal;line-height:120.00000477%;fill:#73d216;font-family:PT Sans;-inkscape-font-specification:PT Sans Bold"
         id="tspan6907">Chameleon 2</tspan><tspan
         y="637.69104"
         x="245"
         sodipodi:role="line"
         style="font-size:14px;font-style:normal;font-variant:normal;font-weight:bold;font-stretch:normal;line-height:120.00000477%;fill:#f57900;font-family:PT Sans;-inkscape-font-specification:PT Sans Bold"
         id="tspan6909">Orange 2</tspan><tspan
         y="654.49109"
         x="245"
         sodipodi:role="line"
         style="font-size:14px;font-style:normal;font-variant:normal;font-weight:bold;font-stretch:normal;line-height:120.00000477%;fill:#3465a4;font-family:PT Sans;-inkscape-font-specification:PT Sans Bold"
         id="tspan6911">Sky Blue 2</tspan><tspan
         y="671.29108"
         x="245"
         sodipodi:role="line"
         style="font-size:14px;font-style:normal;font-variant:normal;font-weight:bold;font-stretch:normal;line-height:120.00000477%;fill:#75507b;font-family:PT Sans;-inkscape-font-specification:PT Sans Bold"
         id="tspan6913">Plum 2</tspan><tspan
         y="688.09106"
         x="245"
         sodipodi:role="line"
         style="font-size:14px;font-style:normal;font-variant:normal;font-weight:bold;font-stretch:normal;line-height:120.00000477%;fill:#c17d11;font-family:PT Sans;-inkscape-font-specification:PT Sans Bold"
         id="tspan6915">Chocolate 2</tspan><tspan
         y="704.89105"
         x="245"
         sodipodi:role="line"
         style="font-size:14px;font-style:normal;font-variant:normal;font-weight:bold;font-stretch:normal;line-height:120.00000477%;fill:#cc0000;font-family:PT Sans;-inkscape-font-specification:PT Sans Bold"
         id="tspan6917">Scarlet Red 2</tspan><tspan
         y="721.69104"
         x="245"
         sodipodi:role="line"
         style="font-size:14px;font-style:normal;font-variant:normal;font-weight:bold;font-stretch:normal;line-height:120.00000477%;fill:#cc0000;font-family:PT Sans;-inkscape-font-specification:PT Sans Bold"
         id="tspan6919" /><tspan
         y="738.49109"
         x="245"
         sodipodi:role="line"
         style="font-size:14px;font-style:normal;font-variant:normal;font-weight:bold;font-stretch:normal;line-height:120.00000477%;font-family:PT Sans;-inkscape-font-specification:PT Sans Bold"
         id="tspan6901" /></text>
    <text
       xml:space="preserve"
       style="font-size:16px;font-style:normal;font-variant:normal;font-weight:bold;font-stretch:normal;line-height:120.00000477%;letter-spacing:0px;word-spacing:0px;fill:#000000;fill-opacity:1;stroke:none;font-family:PT Sans;-inkscape-font-specification:PT Sans Bold"
       x="9"
       y="399.35901"
       id="text4484"
       sodipodi:linespacing="120%"><tspan
         sodipodi:role="line"
         id="tspan4486"
         x="9"
         y="399.35901"
         style="font-size:16px">Heading</tspan><tspan
         sodipodi:role="line"
         x="9"
         y="418.55902"
         style="font-size:16px"
         id="tspan5503">PT Sans 16 Bold</tspan><tspan
         sodipodi:role="line"
         x="9"
         y="437.759"
         style="font-size:16px"
         id="tspan5505" /><tspan
         sodipodi:role="line"
         x="9"
         y="455.29105"
         style="font-size:14px"
         id="tspan5507">Small Heading</tspan><tspan
         sodipodi:role="line"
         x="9"
         y="472.09106"
         style="font-size:14px"
         id="tspan5509">PT Sans 14 Bold</tspan><tspan
         sodipodi:role="line"
         x="9"
         y="488.89105"
         style="font-size:14px"
         id="tspan5511" /><tspan
         sodipodi:role="line"
         x="9"
         y="505.49792"
         style="font-size:12px;font-style:normal;font-variant:normal;font-weight:normal;font-stretch:normal;font-family:DejaVu Sans Mono;-inkscape-font-specification:DejaVu Sans Mono"
         id="tspan5513">&lt;markup/&gt;</tspan><tspan
         sodipodi:role="line"
         x="9"
         y="519.89795"
         style="font-size:12px;font-style:normal;font-variant:normal;font-weight:normal;font-stretch:normal;font-family:DejaVu Sans Mono;-inkscape-font-specification:DejaVu Sans Mono"
         id="tspan5515">DejaVu Sans Mono 12</tspan><tspan
         sodipodi:role="line"
         x="9"
         y="534.29791"
         style="font-size:12px;font-style:normal;font-variant:normal;font-weight:normal;font-stretch:normal;font-family:DejaVu Sans Mono;-inkscape-font-specification:DejaVu Sans Mono"
         id="tspan5517" /><tspan
         sodipodi:role="line"
         x="9"
         y="546.78418"
         style="font-size:10px;font-style:normal;font-variant:normal;font-weight:normal;font-stretch:normal;font-family:DejaVu Sans Mono;-inkscape-font-specification:DejaVu Sans Mono"
         id="tspan5521">&lt;small_markup/&gt;</tspan><tspan
         sodipodi:role="line"
         x="9"
         y="558.78418"
         style="font-size:10px;font-style:normal;font-variant:normal;font-weight:normal;font-stretch:normal;font-family:DejaVu Sans Mono;-inkscape-font-specification:DejaVu Sans Mono"
         id="tspan5519">DejaVu Sans Mono 10</tspan><tspan
         sodipodi:role="line"
         x="9"
         y="570.78418"
         style="font-size:10px;font-style:normal;font-variant:normal;font-weight:normal;font-stretch:normal;font-family:DejaVu Sans Mono;-inkscape-font-specification:DejaVu Sans Mono"
         id="tspan5523" /><tspan
         sodipodi:role="line"
         x="9"
         y="584.69794"
         style="font-size:12px;font-style:normal;font-variant:normal;font-weight:normal;font-stretch:normal;font-family:DejaVu Sans;-inkscape-font-specification:DejaVu Sans"
         id="tspan5525">Descriptions</tspan><tspan
         sodipodi:role="line"
         x="9"
         y="599.09796"
         style="font-size:12px;font-style:normal;font-variant:normal;font-weight:normal;font-stretch:normal;font-family:DejaVu Sans;-inkscape-font-specification:DejaVu Sans"
         id="tspan5527">DejaVu Sans 12</tspan><tspan
         sodipodi:role="line"
         x="9"
         y="613.49792"
         style="font-size:10px;font-style:normal;font-variant:normal;font-weight:normal;font-stretch:normal;font-family:DejaVu Sans Mono;-inkscape-font-specification:DejaVu Sans Mono"
         id="tspan5529" /><tspan
         sodipodi:role="line"
         x="9"
         y="625.98419"
         style="font-size:10px;font-style:normal;font-variant:normal;font-weight:normal;font-stretch:normal;font-family:DejaVu Sans;-inkscape-font-specification:DejaVu Sans"
         id="tspan5531">Small Descriptions</tspan><tspan
         sodipodi:role="line"
         x="9"
         y="637.98419"
         style="font-size:10px;font-style:normal;font-variant:normal;font-weight:normal;font-stretch:normal;font-family:DejaVu Sans;-inkscape-font-specification:DejaVu Sans"
         id="tspan5534">DejaVu Sans 10</tspan><tspan
         sodipodi:role="line"
         x="9"
         y="649.98419"
         style="font-size:10px;font-style:normal;font-variant:normal;font-weight:normal;font-stretch:normal;font-family:DejaVu Sans;-inkscape-font-specification:DejaVu Sans"
         id="tspan5536" /><tspan
         sodipodi:role="line"
         x="9"
         y="663.89795"
         style="font-size:12px;font-style:normal;font-variant:normal;font-weight:bold;font-stretch:normal;fill:#2e3436;font-family:DejaVu Sans;-inkscape-font-specification:DejaVu Sans Bold"
         id="tspan5538">Bold Item</tspan><tspan
         sodipodi:role="line"
         x="9"
         y="678.29791"
         style="font-size:12px;font-style:normal;font-variant:normal;font-weight:bold;font-stretch:normal;fill:#2e3436;font-family:DejaVu Sans;-inkscape-font-specification:DejaVu Sans Bold"
         id="tspan6308">Aluminum 6</tspan><tspan
         sodipodi:role="line"
         x="9"
         y="692.69794"
         style="font-size:12px;font-style:normal;font-variant:normal;font-weight:bold;font-stretch:normal;line-height:120.00000477%;fill:#2e3436;font-family:DejaVu Sans;-inkscape-font-specification:DejaVu Sans Bold"
         id="tspan4642">#2e3436ff</tspan></text>
    <text
       sodipodi:linespacing="120%"
       id="text4683"
       y="399.35901"
       x="481"
       style="font-size:12px;font-style:normal;font-variant:normal;font-weight:normal;font-stretch:normal;line-height:120.00000477%;letter-spacing:0px;word-spacing:0px;fill:#000000;fill-opacity:1;stroke:none;font-family:DejaVu Sans;-inkscape-font-specification:DejaVu Sans"
       xml:space="preserve"><tspan
         y="399.35901"
         x="481"
         sodipodi:role="line"
         style="font-size:12px;font-style:normal;font-variant:normal;font-weight:normal;font-stretch:normal;font-family:DejaVu Sans;-inkscape-font-specification:DejaVu Sans"
         id="tspan7907">Lorem ipsum dolor sit amet,</tspan><tspan
         y="413.759"
         x="481"
         sodipodi:role="line"
         style="font-size:12px;font-style:normal;font-variant:normal;font-weight:normal;font-stretch:normal;font-family:DejaVu Sans;-inkscape-font-specification:DejaVu Sans"
         id="tspan8044">consectetur adipiscing elit. Etiam</tspan><tspan
         y="428.159"
         x="481"
         sodipodi:role="line"
         style="font-size:12px;font-style:normal;font-variant:normal;font-weight:normal;font-stretch:normal;font-family:DejaVu Sans;-inkscape-font-specification:DejaVu Sans"
         id="tspan8046">vitae sapien mi. Aenean lacinia</tspan><tspan
         y="442.55902"
         x="481"
         sodipodi:role="line"
         style="font-size:12px;font-style:normal;font-variant:normal;font-weight:normal;font-stretch:normal;font-family:DejaVu Sans;-inkscape-font-specification:DejaVu Sans"
         id="tspan8048">sapien quis erat bibendum porta.</tspan><tspan
         y="456.95901"
         x="481"
         sodipodi:role="line"
         style="font-size:12px;font-style:normal;font-variant:normal;font-weight:normal;font-stretch:normal;font-family:DejaVu Sans;-inkscape-font-specification:DejaVu Sans"
         id="tspan8050">Quisque venenatis, neque non</tspan><tspan
         y="471.35901"
         x="481"
         sodipodi:role="line"
         style="font-size:12px;font-style:normal;font-variant:normal;font-weight:normal;font-stretch:normal;font-family:DejaVu Sans;-inkscape-font-specification:DejaVu Sans"
         id="tspan8052">bibendum interdum, leo est aliquet</tspan><tspan
         y="485.759"
         x="481"
         sodipodi:role="line"
         style="font-size:12px;font-style:normal;font-variant:normal;font-weight:normal;font-stretch:normal;font-family:DejaVu Sans;-inkscape-font-specification:DejaVu Sans"
         id="tspan8054">metus, sed facilisis augue leo in</tspan><tspan
         y="500.15903"
         x="481"
         sodipodi:role="line"
         style="font-size:12px;font-style:normal;font-variant:normal;font-weight:normal;font-stretch:normal;font-family:DejaVu Sans;-inkscape-font-specification:DejaVu Sans"
         id="tspan8056">purus. Aenean consectetur odio</tspan><tspan
         y="514.55902"
         x="481"
         sodipodi:role="line"
         style="font-size:12px;font-style:normal;font-variant:normal;font-weight:normal;font-stretch:normal;font-family:DejaVu Sans;-inkscape-font-specification:DejaVu Sans"
         id="tspan8058">sed mauris varius iaculis.</tspan><tspan
         y="528.95898"
         x="481"
         sodipodi:role="line"
         style="font-size:12px;font-style:normal;font-variant:normal;font-weight:normal;font-stretch:normal;font-family:DejaVu Sans;-inkscape-font-specification:DejaVu Sans"
         id="tspan8060" /><tspan
         y="543.35901"
         x="481"
         sodipodi:role="line"
         style="font-size:12px;font-style:normal;font-variant:normal;font-weight:normal;font-stretch:normal;font-family:DejaVu Sans;-inkscape-font-specification:DejaVu Sans"
         id="tspan8062">In quis lorem sed leo ornare vehicula</tspan><tspan
         y="557.75903"
         x="481"
         sodipodi:role="line"
         style="font-size:12px;font-style:normal;font-variant:normal;font-weight:normal;font-stretch:normal;font-family:DejaVu Sans;-inkscape-font-specification:DejaVu Sans"
         id="tspan8064">at dignissim ipsum. Pellentesque</tspan><tspan
         y="572.159"
         x="481"
         sodipodi:role="line"
         style="font-size:12px;font-style:normal;font-variant:normal;font-weight:normal;font-stretch:normal;font-family:DejaVu Sans;-inkscape-font-specification:DejaVu Sans"
         id="tspan8066">ante arcu, faucibus at porttitor eu,</tspan><tspan
         y="586.55902"
         x="481"
         sodipodi:role="line"
         style="font-size:12px;font-style:normal;font-variant:normal;font-weight:normal;font-stretch:normal;font-family:DejaVu Sans;-inkscape-font-specification:DejaVu Sans"
         id="tspan8068">vulputate a sapien. Sed nunc purus,</tspan><tspan
         y="600.95905"
         x="481"
         sodipodi:role="line"
         style="font-size:12px;font-style:normal;font-variant:normal;font-weight:normal;font-stretch:normal;font-family:DejaVu Sans;-inkscape-font-specification:DejaVu Sans"
         id="tspan8070">suscipit eu venenatis vel, ornare et</tspan><tspan
         y="615.35901"
         x="481"
         sodipodi:role="line"
         style="font-size:12px;font-style:normal;font-variant:normal;font-weight:normal;font-stretch:normal;font-family:DejaVu Sans;-inkscape-font-specification:DejaVu Sans"
         id="tspan8072">odio. Etiam nulla massa, commodo</tspan><tspan
         y="629.75903"
         x="481"
         sodipodi:role="line"
         style="font-size:12px;font-style:normal;font-variant:normal;font-weight:normal;font-stretch:normal;font-family:DejaVu Sans;-inkscape-font-specification:DejaVu Sans"
         id="tspan8074">eu consequat sed, molestie et purus.</tspan><tspan
         y="644.159"
         x="481"
         sodipodi:role="line"
         style="font-size:12px;font-style:normal;font-variant:normal;font-weight:normal;font-stretch:normal;font-family:DejaVu Sans;-inkscape-font-specification:DejaVu Sans"
         id="tspan8076" /><tspan
         y="658.55902"
         x="481"
         sodipodi:role="line"
         style="font-size:12px;font-style:normal;font-variant:normal;font-weight:normal;font-stretch:normal;font-family:DejaVu Sans;-inkscape-font-specification:DejaVu Sans"
         id="tspan8078">Duis volutpat felis eu enim posuere</tspan><tspan
         y="672.95905"
         x="481"
         sodipodi:role="line"
         style="font-size:12px;font-style:normal;font-variant:normal;font-weight:normal;font-stretch:normal;font-family:DejaVu Sans;-inkscape-font-specification:DejaVu Sans"
         id="tspan8080">fermentum. In tellus orci, volutpat ac</tspan><tspan
         y="687.35901"
         x="481"
         sodipodi:role="line"
         style="font-size:12px;font-style:normal;font-variant:normal;font-weight:normal;font-stretch:normal;font-family:DejaVu Sans;-inkscape-font-specification:DejaVu Sans"
         id="tspan8082">venenatis ut, gravida id augue.</tspan><tspan
         y="701.75903"
         x="481"
         sodipodi:role="line"
         style="font-size:12px;font-style:normal;font-variant:normal;font-weight:normal;font-stretch:normal;font-family:DejaVu Sans;-inkscape-font-specification:DejaVu Sans"
         id="tspan8028" /><tspan
         y="716.159"
         x="481"
         sodipodi:role="line"
         style="font-size:12px;font-style:normal;font-variant:normal;font-weight:normal;font-stretch:normal;font-family:DejaVu Sans;-inkscape-font-specification:DejaVu Sans"
         id="tspan8030">Vivamus volutpat vestibulum tellus,</tspan><tspan
         y="730.55902"
         x="481"
         sodipodi:role="line"
         style="font-size:12px;font-style:normal;font-variant:normal;font-weight:normal;font-stretch:normal;font-family:DejaVu Sans;-inkscape-font-specification:DejaVu Sans"
         id="tspan8084">tristique sodales lectus commodo id.</tspan><tspan
         y="744.95905"
         x="481"
         sodipodi:role="line"
         style="font-size:12px;font-style:normal;font-variant:normal;font-weight:normal;font-stretch:normal;font-family:DejaVu Sans;-inkscape-font-specification:DejaVu Sans"
         id="tspan8086">Nullam nec massa id orci facilisis</tspan><tspan
         y="759.35901"
         x="481"
         sodipodi:role="line"
         style="font-size:12px;font-style:normal;font-variant:normal;font-weight:normal;font-stretch:normal;font-family:DejaVu Sans;-inkscape-font-specification:DejaVu Sans"
         id="tspan8088">ultrices in eu purus. Donec luctus</tspan><tspan
         y="874.55902"
         x="481"
         sodipodi:role="line"
         style="font-size:12px;font-style:normal;font-variant:normal;font-weight:normal;font-stretch:normal;line-height:120.00000477%;font-family:DejaVu Sans;-inkscape-font-specification:DejaVu Sans"
         id="tspan7175">interdum eros sit amet vestibulum.</tspan></text>
    <rect
       style="fill:#3465a4;fill-opacity:1;stroke:#3465a4"
       id="rect3890"
       width="944"
       height="19.99999"
       x="1"
       y="359.35901"
       ry="1.1368683e-13"
       rx="1.1368683e-13" />
    <text
       xml:space="preserve"
       style="font-size:24px;font-style:normal;font-variant:normal;font-weight:bold;font-stretch:normal;line-height:125%;letter-spacing:0px;word-spacing:0px;fill:#ffffff;fill-opacity:1;stroke:#3465a4;font-family:PT Sans;-inkscape-font-specification:PT Sans Bold"
       x="9"
       y="379.35901"
       id="text4400"
       sodipodi:linespacing="125%"><tspan
         sodipodi:role="line"
         id="tspan4402"
         x="9"
         y="379.35901">XYZ XYZ XYZ</tspan></text>
    <text
       sodipodi:linespacing="125%"
       id="text4610"
       y="379.35901"
       x="481"
       style="font-size:24px;font-style:normal;font-variant:normal;font-weight:bold;font-stretch:normal;line-height:125%;letter-spacing:0px;word-spacing:0px;fill:#ffffff;fill-opacity:1;stroke:#3465a4;font-family:PT Sans;-inkscape-font-specification:PT Sans Bold"
       xml:space="preserve"><tspan
         y="379.35901"
         x="481"
         id="tspan4612"
         sodipodi:role="line">XYZ XYZ XYZ</tspan></text>
    <text
       xml:space="preserve"
       style="font-size:24px;font-style:normal;font-variant:normal;font-weight:bold;font-stretch:normal;line-height:125%;letter-spacing:0px;word-spacing:0px;fill:#ffffff;fill-opacity:1;stroke:#3465a4;font-family:PT Sans;-inkscape-font-specification:PT Sans Bold"
       x="717"
       y="379.35901"
       id="text4687"
       sodipodi:linespacing="125%"><tspan
         sodipodi:role="line"
         id="tspan4689"
         x="717"
         y="379.35901">XYZ XYZ XYZ</tspan></text>
    <text
       sodipodi:linespacing="125%"
       id="text5531"
       y="379.35901"
       x="245"
       style="font-size:24px;font-style:normal;font-variant:normal;font-weight:bold;font-stretch:normal;line-height:125%;letter-spacing:0px;word-spacing:0px;fill:#ffffff;fill-opacity:1;stroke:#3465a4;font-family:PT Sans;-inkscape-font-specification:PT Sans Bold"
       xml:space="preserve"><tspan
         y="379.35901"
         x="245"
         id="tspan5533"
         sodipodi:role="line">XYZ XYZ XYZ</tspan></text>
    <text
       sodipodi:linespacing="125%"
       id="text5553"
       y="355.35901"
       x="245"
       style="font-size:20px;font-style:normal;font-variant:normal;font-weight:bold;font-stretch:normal;line-height:125%;letter-spacing:0px;word-spacing:0px;fill:#3465a4;fill-opacity:1;stroke:none;font-family:PT Sans;-inkscape-font-specification:PT Sans Bold"
       xml:space="preserve"><tspan
         y="355.35901"
         x="245"
         id="tspan5555"
         sodipodi:role="line"
         style="font-size:20px;fill:#3465a4">xmlns:xxxxx=&quot;http://projectmallard.org/xxxxx/x.x/&quot; </tspan></text>
    <text
       xml:space="preserve"
       style="font-size:26px;font-style:normal;font-variant:normal;font-weight:bold;font-stretch:normal;line-height:125%;letter-spacing:0px;word-spacing:0px;fill:#f57900;fill-opacity:1;stroke:none;font-family:PT Sans;-inkscape-font-specification:PT Sans Bold"
       x="717"
       y="355.35901"
       id="text5559"
       sodipodi:linespacing="125%"><tspan
         sodipodi:role="line"
         id="tspan5561"
         x="717"
         y="355.35901"
         style="fill:#d3d7cf">&lt;!-- Cheat Sheet --&gt;</tspan></text>
    <path
       inkscape:connector-curvature="0"
       style="fill:#babdb6;fill-opacity:1;fill-rule:evenodd;stroke:none"
       d="m 189.79824,358.23427 c 0,0 14.1887,-10.22557 24.20527,-12.90949 10.32594,-2.76683 21.62341,0.64548 21.62341,0.64548 0,0 -10.87957,-10.53802 -21.30072,-7.74569 -10.71416,2.87087 -24.52796,20.0097 -24.52796,20.0097 z"
       id="path9966-4"
       sodipodi:nodetypes="czczc" />
    <text
       sodipodi:linespacing="125%"
       id="text5563"
       y="355.35901"
       x="9"
       style="font-size:24px;font-style:normal;font-variant:normal;font-weight:bold;font-stretch:normal;line-height:125%;letter-spacing:0px;word-spacing:0px;fill:#204a87;fill-opacity:1;stroke:none;font-family:PT Sans;-inkscape-font-specification:PT Sans Bold"
       xml:space="preserve"><tspan
         style="font-size:24px;fill:#204a87"
         y="355.35901"
         x="9"
         id="tspan5565"
         sodipodi:role="line">Mallard xxxxx/x.x</tspan></text>
    <path
       inkscape:connector-curvature="0"
       id="path5639"
       d="m 215,339.359 c 0,2.0481 -1.66031,3.70841 -3.7084,3.70841 -2.04811,0 -3.70841,-1.66031 -3.70841,-3.70841 0,-2.04809 1.6603,-3.7084 3.70841,-3.7084 2.04809,0 3.7084,1.66031 3.7084,3.7084 z"
       style="fill:#ffffff;fill-opacity:1;fill-rule:evenodd;stroke:#babdb6;stroke-width:2.4506321;stroke-linecap:round;stroke-linejoin:miter;stroke-miterlimit:4;stroke-opacity:1;stroke-dashoffset:0;marker:none;visibility:visible;display:inline;overflow:visible;enable-background:accumulate" />
    <text
       xml:space="preserve"
       style="font-size:9px;font-style:normal;font-variant:normal;font-weight:normal;font-stretch:normal;line-height:125%;letter-spacing:0px;word-spacing:0px;fill:#888a85;fill-opacity:1;stroke:none;font-family:DejaVu Sans;-inkscape-font-specification:DejaVu Sans"
       x="9"
       y="1043.359"
       id="text4779"
       sodipodi:linespacing="125%"><tspan
         sodipodi:role="line"
         id="tspan4781"
         x="9"
         y="1043.359">© 2012 Syllogist LLC — cc-by-sa 3.0 (US)</tspan></text>
    <rect
       rx="2.8421708e-14"
       ry="1.1368683e-13"
       y="731.35901"
       x="709"
       height="19.99999"
       width="236"
       id="rect8121"
       style="fill:#3465a4;fill-opacity:1;stroke:none" />
    <text
       sodipodi:linespacing="125%"
       id="text8123"
       y="751.35901"
       x="717"
       style="font-size:24px;font-style:normal;font-variant:normal;font-weight:bold;font-stretch:normal;line-height:125%;letter-spacing:0px;word-spacing:0px;fill:#ffffff;fill-opacity:1;stroke:#3465a4;font-family:PT Sans;-inkscape-font-specification:PT Sans Bold"
       xml:space="preserve"><tspan
         y="751.35901"
         x="717"
         id="tspan8125"
         sodipodi:role="line">XYZ XYZ XYZ</tspan></text>
    <text
       xml:space="preserve"
       style="font-size:12px;font-style:normal;font-variant:normal;font-weight:normal;font-stretch:normal;line-height:120.00000477%;letter-spacing:0px;word-spacing:0px;fill:#000000;fill-opacity:1;stroke:none;font-family:DejaVu Sans;-inkscape-font-specification:DejaVu Sans"
       x="717"
       y="399.35901"
       id="text8127"
       sodipodi:linespacing="120%"><tspan
         id="tspan8149"
         style="font-size:12px;font-style:normal;font-variant:normal;font-weight:normal;font-stretch:normal;font-family:DejaVu Sans;-inkscape-font-specification:DejaVu Sans"
         sodipodi:role="line"
         x="717"
         y="399.35901">In quis lorem sed leo ornare vehicula</tspan><tspan
         id="tspan8151"
         style="font-size:12px;font-style:normal;font-variant:normal;font-weight:normal;font-stretch:normal;font-family:DejaVu Sans;-inkscape-font-specification:DejaVu Sans"
         sodipodi:role="line"
         x="717"
         y="413.759">at dignissim ipsum. Pellentesque</tspan><tspan
         id="tspan8153"
         style="font-size:12px;font-style:normal;font-variant:normal;font-weight:normal;font-stretch:normal;font-family:DejaVu Sans;-inkscape-font-specification:DejaVu Sans"
         sodipodi:role="line"
         x="717"
         y="428.159">ante arcu, faucibus at porttitor eu,</tspan><tspan
         id="tspan8155"
         style="font-size:12px;font-style:normal;font-variant:normal;font-weight:normal;font-stretch:normal;font-family:DejaVu Sans;-inkscape-font-specification:DejaVu Sans"
         sodipodi:role="line"
         x="717"
         y="442.55902">vulputate a sapien. Sed nunc purus,</tspan><tspan
         id="tspan8157"
         style="font-size:12px;font-style:normal;font-variant:normal;font-weight:normal;font-stretch:normal;font-family:DejaVu Sans;-inkscape-font-specification:DejaVu Sans"
         sodipodi:role="line"
         x="717"
         y="456.95901">suscipit eu venenatis vel, ornare et</tspan><tspan
         id="tspan8159"
         style="font-size:12px;font-style:normal;font-variant:normal;font-weight:normal;font-stretch:normal;font-family:DejaVu Sans;-inkscape-font-specification:DejaVu Sans"
         sodipodi:role="line"
         x="717"
         y="471.35901">odio. Etiam nulla massa, commodo</tspan><tspan
         id="tspan8161"
         style="font-size:12px;font-style:normal;font-variant:normal;font-weight:normal;font-stretch:normal;font-family:DejaVu Sans;-inkscape-font-specification:DejaVu Sans"
         sodipodi:role="line"
         x="717"
         y="485.759">eu consequat sed, molestie et purus.</tspan><tspan
         id="tspan8163"
         style="font-size:12px;font-style:normal;font-variant:normal;font-weight:normal;font-stretch:normal;font-family:DejaVu Sans;-inkscape-font-specification:DejaVu Sans"
         sodipodi:role="line"
         x="717"
         y="500.15903" /><tspan
         id="tspan8165"
         style="font-size:12px;font-style:normal;font-variant:normal;font-weight:normal;font-stretch:normal;font-family:DejaVu Sans;-inkscape-font-specification:DejaVu Sans"
         sodipodi:role="line"
         x="717"
         y="514.55902">Duis volutpat felis eu enim posuere</tspan><tspan
         id="tspan8167"
         style="font-size:12px;font-style:normal;font-variant:normal;font-weight:normal;font-stretch:normal;font-family:DejaVu Sans;-inkscape-font-specification:DejaVu Sans"
         sodipodi:role="line"
         x="717"
         y="528.95898">fermentum. In tellus orci, volutpat ac</tspan><tspan
         id="tspan8169"
         style="font-size:12px;font-style:normal;font-variant:normal;font-weight:normal;font-stretch:normal;font-family:DejaVu Sans;-inkscape-font-specification:DejaVu Sans"
         sodipodi:role="line"
         x="717"
         y="543.35901">venenatis ut, gravida id augue.</tspan><tspan
         id="tspan8171"
         style="font-size:12px;font-style:normal;font-variant:normal;font-weight:normal;font-stretch:normal;font-family:DejaVu Sans;-inkscape-font-specification:DejaVu Sans"
         sodipodi:role="line"
         x="717"
         y="557.75903" /><tspan
         id="tspan8173"
         style="font-size:12px;font-style:normal;font-variant:normal;font-weight:normal;font-stretch:normal;font-family:DejaVu Sans;-inkscape-font-specification:DejaVu Sans"
         sodipodi:role="line"
         x="717"
         y="572.159">Vivamus volutpat vestibulum tellus,</tspan><tspan
         id="tspan8175"
         style="font-size:12px;font-style:normal;font-variant:normal;font-weight:normal;font-stretch:normal;font-family:DejaVu Sans;-inkscape-font-specification:DejaVu Sans"
         sodipodi:role="line"
         x="717"
         y="586.55902">tristique sodales lectus commodo id.</tspan><tspan
         id="tspan8177"
         style="font-size:12px;font-style:normal;font-variant:normal;font-weight:normal;font-stretch:normal;font-family:DejaVu Sans;-inkscape-font-specification:DejaVu Sans"
         sodipodi:role="line"
         x="717"
         y="600.95905">Nullam nec massa id orci facilisis</tspan><tspan
         id="tspan8179"
         style="font-size:12px;font-style:normal;font-variant:normal;font-weight:normal;font-stretch:normal;font-family:DejaVu Sans;-inkscape-font-specification:DejaVu Sans"
         sodipodi:role="line"
         x="717"
         y="615.35901">ultrices in eu purus. Donec luctus</tspan><tspan
         id="tspan8181"
         style="font-size:12px;font-style:normal;font-variant:normal;font-weight:normal;font-stretch:normal;line-height:120.00000477%;font-family:DejaVu Sans;-inkscape-font-specification:DejaVu Sans"
         sodipodi:role="line"
         x="717"
         y="629.75903">interdum eros sit amet vestibulum.</tspan></text>
    <text
       sodipodi:linespacing="120%"
       id="text8183"
       y="771.35901"
       x="717"
       style="font-size:12px;font-style:normal;font-variant:normal;font-weight:normal;font-stretch:normal;line-height:120.00000477%;letter-spacing:0px;word-spacing:0px;fill:#000000;fill-opacity:1;stroke:none;font-family:DejaVu Sans;-inkscape-font-specification:DejaVu Sans"
       xml:space="preserve"><tspan
         y="771.35901"
         x="717"
         sodipodi:role="line"
         style="font-size:12px;font-style:normal;font-variant:normal;font-weight:normal;font-stretch:normal;font-family:DejaVu Sans;-inkscape-font-specification:DejaVu Sans"
         id="tspan8221">Duis volutpat felis eu enim posuere</tspan><tspan
         y="785.75903"
         x="717"
         sodipodi:role="line"
         style="font-size:12px;font-style:normal;font-variant:normal;font-weight:normal;font-stretch:normal;font-family:DejaVu Sans;-inkscape-font-specification:DejaVu Sans"
         id="tspan8223">fermentum. In tellus orci, volutpat ac</tspan><tspan
         y="800.159"
         x="717"
         sodipodi:role="line"
         style="font-size:12px;font-style:normal;font-variant:normal;font-weight:normal;font-stretch:normal;font-family:DejaVu Sans;-inkscape-font-specification:DejaVu Sans"
         id="tspan8225">venenatis ut, gravida id augue.</tspan><tspan
         y="814.55902"
         x="717"
         sodipodi:role="line"
         style="font-size:12px;font-style:normal;font-variant:normal;font-weight:normal;font-stretch:normal;font-family:DejaVu Sans;-inkscape-font-specification:DejaVu Sans"
         id="tspan8227" /><tspan
         y="828.95898"
         x="717"
         sodipodi:role="line"
         style="font-size:12px;font-style:normal;font-variant:normal;font-weight:normal;font-stretch:normal;font-family:DejaVu Sans;-inkscape-font-specification:DejaVu Sans"
         id="tspan8229">Vivamus volutpat vestibulum tellus,</tspan><tspan
         y="843.35901"
         x="717"
         sodipodi:role="line"
         style="font-size:12px;font-style:normal;font-variant:normal;font-weight:normal;font-stretch:normal;font-family:DejaVu Sans;-inkscape-font-specification:DejaVu Sans"
         id="tspan8231">tristique sodales lectus commodo id.</tspan><tspan
         y="857.75903"
         x="717"
         sodipodi:role="line"
         style="font-size:12px;font-style:normal;font-variant:normal;font-weight:normal;font-stretch:normal;font-family:DejaVu Sans;-inkscape-font-specification:DejaVu Sans"
         id="tspan8233">Nullam nec massa id orci facilisis</tspan><tspan
         y="872.159"
         x="717"
         sodipodi:role="line"
         style="font-size:12px;font-style:normal;font-variant:normal;font-weight:normal;font-stretch:normal;font-family:DejaVu Sans;-inkscape-font-specification:DejaVu Sans"
         id="tspan8235">ultrices in eu purus. Donec luctus</tspan><tspan
         y="886.55902"
         x="717"
         sodipodi:role="line"
         style="font-size:12px;font-style:normal;font-variant:normal;font-weight:normal;font-stretch:normal;line-height:120.00000477%;font-family:DejaVu Sans;-inkscape-font-specification:DejaVu Sans"
         id="tspan8237">interdum eros sit amet vestibulum.</tspan></text>
  </g>
</svg>
